{
  "pages": {
    "/index": {
      "foo": {
        "text": "Lorem ipsum dolor sit amet."
      },
      "bar": {
        "text": "bar",
        "source": "https://placekitten.com/200/300",
        "description": "Boolie boolie",
        "highDpi": false
      }
    }
  }
}